info face="Pirulen" size=160 bold=0 italic=0 charset="" unicode=0 stretchH=100 smooth=1 aa=1 padding=0,0,0,0 spacing=0,0
common lineHeight=178 base=137 scaleW=512 scaleH=512 pages=6 packed=0
page id=0 file="big_font1.png"
page id=1 file="big_font2.png"
page id=2 file="big_font3.png"
page id=3 file="big_font4.png"
page id=4 file="big_font5.png"
page id=5 file="big_font6.png"
chars count=94
char id=32   x=0     y=0     width=0     height=0     xoffset=0     yoffset=137    xadvance=80     page=0  chnl=0 
char id=124   x=0     y=0     width=16     height=140     xoffset=11     yoffset=11    xadvance=36     page=0  chnl=0 
char id=125   x=16     y=0     width=40     height=140     xoffset=6     yoffset=11    xadvance=47     page=0  chnl=0 
char id=123   x=56     y=0     width=41     height=140     xoffset=3     yoffset=11    xadvance=47     page=0  chnl=0 
char id=93   x=97     y=0     width=29     height=140     xoffset=4     yoffset=11    xadvance=42     page=0  chnl=0 
char id=91   x=126     y=0     width=29     height=140     xoffset=11     yoffset=11    xadvance=41     page=0  chnl=0 
char id=41   x=155     y=0     width=39     height=140     xoffset=6     yoffset=11    xadvance=48     page=0  chnl=0 
char id=40   x=194     y=0     width=38     height=140     xoffset=5     yoffset=11    xadvance=48     page=0  chnl=0 
char id=113   x=232     y=0     width=147     height=140     xoffset=6     yoffset=23    xadvance=160     page=0  chnl=0 
char id=81   x=0     y=140     width=147     height=140     xoffset=6     yoffset=23    xadvance=160     page=0  chnl=0 
char id=37   x=147     y=140     width=120     height=136     xoffset=5     yoffset=2    xadvance=134     page=0  chnl=0 
char id=64   x=267     y=140     width=120     height=136     xoffset=10     yoffset=2    xadvance=136     page=0  chnl=0 
char id=38   x=387     y=140     width=107     height=115     xoffset=10     yoffset=23    xadvance=123     page=0  chnl=0 
char id=36   x=0     y=280     width=118     height=115     xoffset=5     yoffset=23    xadvance=126     page=0  chnl=0 
char id=92   x=118     y=280     width=81     height=115     xoffset=1     yoffset=23    xadvance=81     page=0  chnl=0 
char id=47   x=199     y=280     width=81     height=115     xoffset=1     yoffset=23    xadvance=82     page=0  chnl=0 
char id=63   x=280     y=280     width=100     height=115     xoffset=7     yoffset=23    xadvance=108     page=0  chnl=0 
char id=33   x=380     y=280     width=26     height=115     xoffset=8     yoffset=23    xadvance=41     page=0  chnl=0 
char id=48   x=0     y=395     width=125     height=115     xoffset=10     yoffset=23    xadvance=143     page=0  chnl=0 
char id=57   x=125     y=395     width=129     height=115     xoffset=9     yoffset=23    xadvance=146     page=0  chnl=0 
char id=56   x=254     y=395     width=130     height=115     xoffset=10     yoffset=23    xadvance=148     page=0  chnl=0 
char id=45   x=384     y=395     width=71     height=19     xoffset=10     yoffset=74    xadvance=90     page=0  chnl=0 
char id=42   x=455     y=395     width=53     height=52     xoffset=4     yoffset=23    xadvance=60     page=0  chnl=0 
char id=55   x=0     y=0     width=128     height=115     xoffset=5     yoffset=23    xadvance=134     page=1  chnl=0 
char id=54   x=128     y=0     width=130     height=115     xoffset=10     yoffset=23    xadvance=147     page=1  chnl=0 
char id=53   x=258     y=0     width=118     height=115     xoffset=10     yoffset=23    xadvance=135     page=1  chnl=0 
char id=52   x=0     y=115     width=136     height=115     xoffset=2     yoffset=23    xadvance=145     page=1  chnl=0 
char id=51   x=136     y=115     width=113     height=115     xoffset=9     yoffset=23    xadvance=130     page=1  chnl=0 
char id=50   x=249     y=115     width=118     height=115     xoffset=9     yoffset=23    xadvance=134     page=1  chnl=0 
char id=49   x=367     y=115     width=54     height=115     xoffset=0     yoffset=23    xadvance=63     page=1  chnl=0 
char id=122   x=0     y=230     width=153     height=115     xoffset=10     yoffset=23    xadvance=166     page=1  chnl=0 
char id=121   x=153     y=230     width=167     height=115     xoffset=-1     yoffset=23    xadvance=165     page=1  chnl=0 
char id=120   x=320     y=230     width=157     height=115     xoffset=2     yoffset=23    xadvance=159     page=1  chnl=0 
char id=119   x=0     y=345     width=216     height=115     xoffset=0     yoffset=23    xadvance=214     page=1  chnl=0 
char id=118   x=216     y=345     width=166     height=115     xoffset=0     yoffset=23    xadvance=165     page=1  chnl=0 
char id=95   x=382     y=345     width=106     height=19     xoffset=0     yoffset=142    xadvance=104     page=1  chnl=0 
char id=46   x=0     y=460     width=27     height=23     xoffset=10     yoffset=115    xadvance=46     page=1  chnl=0 
char id=126   x=27     y=460     width=108     height=25     xoffset=7     yoffset=65    xadvance=121     page=1  chnl=0 
char id=96   x=135     y=460     width=59     height=34     xoffset=3     yoffset=4    xadvance=65     page=1  chnl=0 
char id=44   x=194     y=460     width=27     height=35     xoffset=9     yoffset=115    xadvance=42     page=1  chnl=0 
char id=34   x=221     y=460     width=48     height=38     xoffset=9     yoffset=23    xadvance=65     page=1  chnl=0 
char id=39   x=269     y=460     width=22     height=38     xoffset=8     yoffset=23    xadvance=37     page=1  chnl=0 
char id=117   x=0     y=0     width=142     height=115     xoffset=10     yoffset=23    xadvance=160     page=2  chnl=0 
char id=116   x=142     y=0     width=140     height=115     xoffset=3     yoffset=23    xadvance=145     page=2  chnl=0 
char id=115   x=282     y=0     width=142     height=115     xoffset=9     yoffset=23    xadvance=158     page=2  chnl=0 
char id=114   x=0     y=115     width=132     height=115     xoffset=10     yoffset=23    xadvance=149     page=2  chnl=0 
char id=112   x=132     y=115     width=130     height=115     xoffset=10     yoffset=23    xadvance=141     page=2  chnl=0 
char id=111   x=262     y=115     width=147     height=115     xoffset=10     yoffset=23    xadvance=164     page=2  chnl=0 
char id=110   x=0     y=230     width=151     height=115     xoffset=10     yoffset=23    xadvance=170     page=2  chnl=0 
char id=109   x=151     y=230     width=174     height=115     xoffset=10     yoffset=23    xadvance=192     page=2  chnl=0 
char id=108   x=325     y=230     width=114     height=115     xoffset=8     yoffset=23    xadvance=127     page=2  chnl=0 
char id=107   x=0     y=345     width=126     height=115     xoffset=11     yoffset=23    xadvance=137     page=2  chnl=0 
char id=106   x=126     y=345     width=68     height=115     xoffset=1     yoffset=23    xadvance=77     page=2  chnl=0 
char id=105   x=194     y=345     width=23     height=115     xoffset=11     yoffset=23    xadvance=43     page=2  chnl=0 
char id=104   x=217     y=345     width=137     height=115     xoffset=10     yoffset=23    xadvance=156     page=2  chnl=0 
char id=103   x=354     y=345     width=132     height=115     xoffset=10     yoffset=23    xadvance=149     page=2  chnl=0 
char id=102   x=0     y=0     width=117     height=115     xoffset=11     yoffset=23    xadvance=127     page=3  chnl=0 
char id=101   x=117     y=0     width=117     height=115     xoffset=11     yoffset=23    xadvance=135     page=3  chnl=0 
char id=100   x=234     y=0     width=147     height=115     xoffset=10     yoffset=23    xadvance=165     page=3  chnl=0 
char id=99   x=381     y=0     width=127     height=115     xoffset=10     yoffset=23    xadvance=145     page=3  chnl=0 
char id=98   x=0     y=115     width=130     height=115     xoffset=10     yoffset=23    xadvance=148     page=3  chnl=0 
char id=97   x=130     y=115     width=166     height=115     xoffset=0     yoffset=23    xadvance=165     page=3  chnl=0 
char id=90   x=296     y=115     width=153     height=115     xoffset=10     yoffset=23    xadvance=166     page=3  chnl=0 
char id=89   x=0     y=230     width=167     height=115     xoffset=-1     yoffset=23    xadvance=165     page=3  chnl=0 
char id=88   x=167     y=230     width=157     height=115     xoffset=2     yoffset=23    xadvance=159     page=3  chnl=0 
char id=87   x=0     y=345     width=216     height=115     xoffset=0     yoffset=23    xadvance=214     page=3  chnl=0 
char id=86   x=216     y=345     width=166     height=115     xoffset=0     yoffset=23    xadvance=165     page=3  chnl=0 
char id=61   x=382     y=345     width=71     height=54     xoffset=10     yoffset=56    xadvance=86     page=3  chnl=0 
char id=58   x=453     y=345     width=23     height=55     xoffset=11     yoffset=83    xadvance=39     page=3  chnl=0 
char id=85   x=0     y=0     width=142     height=115     xoffset=10     yoffset=23    xadvance=160     page=4  chnl=0 
char id=84   x=142     y=0     width=140     height=115     xoffset=3     yoffset=23    xadvance=145     page=4  chnl=0 
char id=83   x=282     y=0     width=142     height=115     xoffset=9     yoffset=23    xadvance=158     page=4  chnl=0 
char id=82   x=0     y=115     width=132     height=115     xoffset=10     yoffset=23    xadvance=149     page=4  chnl=0 
char id=80   x=132     y=115     width=130     height=115     xoffset=10     yoffset=23    xadvance=141     page=4  chnl=0 
char id=79   x=262     y=115     width=147     height=115     xoffset=10     yoffset=23    xadvance=164     page=4  chnl=0 
char id=78   x=0     y=230     width=151     height=115     xoffset=10     yoffset=23    xadvance=170     page=4  chnl=0 
char id=77   x=151     y=230     width=174     height=115     xoffset=10     yoffset=23    xadvance=192     page=4  chnl=0 
char id=76   x=325     y=230     width=114     height=115     xoffset=8     yoffset=23    xadvance=127     page=4  chnl=0 
char id=75   x=0     y=345     width=126     height=115     xoffset=11     yoffset=23    xadvance=137     page=4  chnl=0 
char id=74   x=126     y=345     width=68     height=115     xoffset=1     yoffset=23    xadvance=77     page=4  chnl=0 
char id=73   x=194     y=345     width=23     height=115     xoffset=11     yoffset=23    xadvance=43     page=4  chnl=0 
char id=72   x=217     y=345     width=137     height=115     xoffset=10     yoffset=23    xadvance=156     page=4  chnl=0 
char id=71   x=354     y=345     width=132     height=115     xoffset=10     yoffset=23    xadvance=149     page=4  chnl=0 
char id=70   x=0     y=0     width=117     height=115     xoffset=11     yoffset=23    xadvance=127     page=5  chnl=0 
char id=69   x=117     y=0     width=117     height=115     xoffset=11     yoffset=23    xadvance=135     page=5  chnl=0 
char id=68   x=234     y=0     width=147     height=115     xoffset=10     yoffset=23    xadvance=165     page=5  chnl=0 
char id=67   x=381     y=0     width=127     height=115     xoffset=10     yoffset=23    xadvance=145     page=5  chnl=0 
char id=66   x=0     y=115     width=130     height=115     xoffset=10     yoffset=23    xadvance=148     page=5  chnl=0 
char id=65   x=130     y=115     width=166     height=115     xoffset=0     yoffset=23    xadvance=165     page=5  chnl=0 
char id=35   x=296     y=115     width=80     height=96     xoffset=8     yoffset=2    xadvance=94     page=5  chnl=0 
char id=62   x=376     y=115     width=71     height=72     xoffset=10     yoffset=48    xadvance=80     page=5  chnl=0 
char id=60   x=0     y=230     width=70     height=72     xoffset=1     yoffset=48    xadvance=78     page=5  chnl=0 
char id=59   x=70     y=230     width=23     height=67     xoffset=9     yoffset=83    xadvance=39     page=5  chnl=0 
char id=43   x=93     y=230     width=59     height=57     xoffset=3     yoffset=68    xadvance=64     page=5  chnl=0 
char id=94   x=152     y=230     width=100     height=57     xoffset=4     yoffset=43    xadvance=108     page=5  chnl=0 
kernings count=464
kerning first=113  second=44  amount=-2
kerning first=113  second=46  amount=-4
kerning first=113  second=47  amount=-3
kerning first=113  second=58  amount=-4
kerning first=113  second=59  amount=-2
kerning first=113  second=63  amount=-2
kerning first=113  second=33  amount=-3
kerning first=81  second=41  amount=-4
kerning first=81  second=44  amount=-2
kerning first=81  second=46  amount=-4
kerning first=81  second=47  amount=-3
kerning first=81  second=63  amount=-2
kerning first=81  second=65  amount=-3
kerning first=81  second=85  amount=-4
kerning first=81  second=93  amount=-3
kerning first=81  second=124  amount=-4
kerning first=81  second=125  amount=-5
kerning first=81  second=97  amount=-3
kerning first=81  second=117  amount=-4
kerning first=81  second=33  amount=-3
kerning first=47  second=48  amount=-3
kerning first=47  second=52  amount=-22
kerning first=47  second=54  amount=-3
kerning first=47  second=56  amount=-2
kerning first=47  second=65  amount=-32
kerning first=47  second=71  amount=-3
kerning first=47  second=79  amount=-3
kerning first=47  second=97  amount=-32
kerning first=47  second=99  amount=-3
kerning first=47  second=103  amount=-3
kerning first=47  second=106  amount=-23
kerning first=47  second=111  amount=-3
kerning first=48  second=50  amount=-4
kerning first=48  second=53  amount=-4
kerning first=57  second=46  amount=-5
kerning first=57  second=48  amount=-5
kerning first=57  second=50  amount=-4
kerning first=57  second=51  amount=-5
kerning first=57  second=53  amount=-4
kerning first=57  second=54  amount=-5
kerning first=57  second=56  amount=-4
kerning first=56  second=44  amount=-3
kerning first=56  second=46  amount=-5
kerning first=56  second=47  amount=-2
kerning first=56  second=48  amount=-5
kerning first=56  second=51  amount=-5
kerning first=56  second=53  amount=-4
kerning first=56  second=57  amount=-3
kerning first=55  second=44  amount=-41
kerning first=55  second=47  amount=-29
kerning first=55  second=52  amount=-29
kerning first=54  second=44  amount=-2
kerning first=54  second=46  amount=-4
kerning first=54  second=50  amount=-3
kerning first=54  second=55  amount=-3
kerning first=53  second=44  amount=-3
kerning first=53  second=46  amount=-5
kerning first=53  second=48  amount=-4
kerning first=53  second=50  amount=-3
kerning first=53  second=51  amount=-4
kerning first=53  second=53  amount=-5
kerning first=53  second=54  amount=-4
kerning first=53  second=56  amount=-4
kerning first=53  second=57  amount=-5
kerning first=52  second=48  amount=-2
kerning first=52  second=51  amount=-7
kerning first=52  second=53  amount=-6
kerning first=52  second=55  amount=-7
kerning first=52  second=57  amount=-10
kerning first=51  second=44  amount=-3
kerning first=51  second=46  amount=-5
kerning first=51  second=48  amount=-4
kerning first=51  second=50  amount=-3
kerning first=51  second=51  amount=-4
kerning first=51  second=53  amount=-4
kerning first=51  second=54  amount=-4
kerning first=51  second=56  amount=-4
kerning first=51  second=57  amount=-3
kerning first=50  second=46  amount=-4
kerning first=50  second=48  amount=-4
kerning first=50  second=51  amount=-3
kerning first=50  second=54  amount=-4
kerning first=50  second=57  amount=-3
kerning first=49  second=44  amount=-4
kerning first=121  second=44  amount=-42
kerning first=121  second=46  amount=-44
kerning first=121  second=47  amount=-31
kerning first=121  second=59  amount=-27
kerning first=121  second=97  amount=-39
kerning first=121  second=99  amount=-2
kerning first=120  second=99  amount=-4
kerning first=120  second=111  amount=-3
kerning first=119  second=46  amount=-27
kerning first=119  second=47  amount=-24
kerning first=119  second=59  amount=-15
kerning first=119  second=97  amount=-23
kerning first=118  second=44  amount=-39
kerning first=118  second=46  amount=-41
kerning first=118  second=47  amount=-30
kerning first=118  second=59  amount=-25
kerning first=118  second=97  amount=-39
kerning first=46  second=54  amount=-6
kerning first=46  second=55  amount=-22
kerning first=46  second=56  amount=-6
kerning first=117  second=58  amount=-5
kerning first=117  second=59  amount=-3
kerning first=117  second=63  amount=-2
kerning first=116  second=47  amount=-28
kerning first=116  second=59  amount=-24
kerning first=115  second=44  amount=-2
kerning first=115  second=58  amount=-4
kerning first=115  second=59  amount=-2
kerning first=115  second=63  amount=-7
kerning first=115  second=33  amount=-3
kerning first=114  second=44  amount=-3
kerning first=114  second=45  amount=-8
kerning first=114  second=46  amount=-5
kerning first=114  second=59  amount=-3
kerning first=114  second=63  amount=-2
kerning first=114  second=99  amount=-4
kerning first=114  second=100  amount=-4
kerning first=114  second=101  amount=-4
kerning first=114  second=103  amount=-4
kerning first=114  second=105  amount=-4
kerning first=114  second=107  amount=-4
kerning first=114  second=109  amount=-4
kerning first=114  second=110  amount=-4
kerning first=114  second=111  amount=-4
kerning first=114  second=112  amount=-4
kerning first=114  second=114  amount=-4
kerning first=114  second=115  amount=-3
kerning first=114  second=33  amount=-3
kerning first=112  second=44  amount=-66
kerning first=112  second=46  amount=-68
kerning first=112  second=47  amount=-14
kerning first=111  second=46  amount=-4
kerning first=111  second=58  amount=-4
kerning first=111  second=63  amount=-2
kerning first=111  second=103  amount=-4
kerning first=111  second=120  amount=-2
kerning first=111  second=33  amount=-3
kerning first=110  second=46  amount=-6
kerning first=110  second=58  amount=-6
kerning first=110  second=100  amount=-6
kerning first=110  second=111  amount=-5
kerning first=109  second=44  amount=-4
kerning first=109  second=46  amount=-6
kerning first=109  second=58  amount=-6
kerning first=109  second=59  amount=-4
kerning first=109  second=63  amount=-3
kerning first=109  second=117  amount=-5
kerning first=109  second=33  amount=-3
kerning first=107  second=111  amount=-3
kerning first=106  second=58  amount=-5
kerning first=106  second=59  amount=-3
kerning first=106  second=63  amount=-2
kerning first=106  second=111  amount=-5
kerning first=105  second=46  amount=-6
kerning first=105  second=58  amount=-6
kerning first=105  second=59  amount=-4
kerning first=105  second=63  amount=-3
kerning first=105  second=33  amount=-4
kerning first=104  second=58  amount=-6
kerning first=104  second=59  amount=-4
kerning first=104  second=63  amount=-3
kerning first=104  second=111  amount=-5
kerning first=104  second=33  amount=-3
kerning first=103  second=59  amount=-2
kerning first=103  second=63  amount=-3
kerning first=103  second=101  amount=-4
kerning first=103  second=102  amount=-4
kerning first=103  second=105  amount=-4
kerning first=103  second=111  amount=-4
kerning first=103  second=114  amount=-4
kerning first=103  second=33  amount=-3
kerning first=102  second=44  amount=-57
kerning first=102  second=46  amount=-59
kerning first=102  second=47  amount=-13
kerning first=102  second=97  amount=-16
kerning first=102  second=106  amount=-8
kerning first=101  second=100  amount=-4
kerning first=101  second=110  amount=-4
kerning first=101  second=112  amount=-4
kerning first=100  second=58  amount=-5
kerning first=100  second=59  amount=-3
kerning first=100  second=63  amount=-5
kerning first=100  second=101  amount=-5
kerning first=100  second=33  amount=-4
kerning first=99  second=44  amount=-2
kerning first=99  second=46  amount=-4
kerning first=99  second=58  amount=-4
kerning first=99  second=107  amount=-4
kerning first=99  second=33  amount=-2
kerning first=98  second=44  amount=-3
kerning first=98  second=46  amount=-5
kerning first=98  second=47  amount=-2
kerning first=98  second=58  amount=-5
kerning first=98  second=59  amount=-3
kerning first=98  second=63  amount=-3
kerning first=98  second=98  amount=-5
kerning first=98  second=108  amount=-2
kerning first=98  second=117  amount=-4
kerning first=98  second=33  amount=-3
kerning first=97  second=63  amount=-3
kerning first=97  second=116  amount=-35
kerning first=97  second=118  amount=-39
kerning first=97  second=119  amount=-23
kerning first=97  second=121  amount=-39
kerning first=89  second=44  amount=-42
kerning first=89  second=46  amount=-44
kerning first=89  second=47  amount=-31
kerning first=89  second=58  amount=-29
kerning first=89  second=59  amount=-27
kerning first=89  second=65  amount=-39
kerning first=89  second=67  amount=-2
kerning first=89  second=97  amount=-39
kerning first=89  second=99  amount=-2
kerning first=88  second=67  amount=-4
kerning first=88  second=71  amount=-3
kerning first=88  second=79  amount=-3
kerning first=87  second=44  amount=-25
kerning first=87  second=58  amount=-17
kerning first=87  second=59  amount=-15
kerning first=87  second=65  amount=-23
kerning first=87  second=97  amount=-23
kerning first=86  second=44  amount=-39
kerning first=86  second=45  amount=-22
kerning first=86  second=46  amount=-41
kerning first=86  second=47  amount=-30
kerning first=86  second=58  amount=-27
kerning first=86  second=59  amount=-25
kerning first=86  second=65  amount=-39
kerning first=86  second=67  amount=-2
kerning first=86  second=97  amount=-39
kerning first=85  second=65  amount=-3
kerning first=85  second=79  amount=-5
kerning first=85  second=83  amount=-4
kerning first=85  second=97  amount=-3
kerning first=85  second=99  amount=-5
kerning first=85  second=100  amount=-5
kerning first=85  second=103  amount=-5
kerning first=85  second=105  amount=-5
kerning first=85  second=112  amount=-5
kerning first=85  second=114  amount=-5
kerning first=85  second=115  amount=-4
kerning first=85  second=122  amount=-5
kerning first=84  second=44  amount=-35
kerning first=84  second=45  amount=-22
kerning first=84  second=46  amount=-37
kerning first=84  second=47  amount=-28
kerning first=84  second=59  amount=-24
kerning first=84  second=65  amount=-35
kerning first=84  second=97  amount=-35
kerning first=83  second=46  amount=-4
kerning first=83  second=63  amount=-7
kerning first=83  second=73  amount=-4
kerning first=83  second=77  amount=-4
kerning first=83  second=84  amount=-3
kerning first=83  second=104  amount=-4
kerning first=83  second=105  amount=-4
kerning first=83  second=107  amount=-4
kerning first=83  second=109  amount=-4
kerning first=83  second=110  amount=-4
kerning first=83  second=112  amount=-4
kerning first=83  second=114  amount=-4
kerning first=83  second=117  amount=-4
kerning first=82  second=63  amount=-2
kerning first=82  second=67  amount=-4
kerning first=82  second=71  amount=-4
kerning first=82  second=79  amount=-4
kerning first=82  second=85  amount=-4
kerning first=82  second=101  amount=-4
kerning first=82  second=111  amount=-4
kerning first=80  second=44  amount=-66
kerning first=80  second=46  amount=-68
kerning first=80  second=47  amount=-14
kerning first=80  second=97  amount=-18
kerning first=79  second=44  amount=-2
kerning first=79  second=46  amount=-4
kerning first=79  second=68  amount=-4
kerning first=79  second=69  amount=-4
kerning first=79  second=75  amount=-4
kerning first=79  second=82  amount=-4
kerning first=79  second=85  amount=-4
kerning first=79  second=88  amount=-2
kerning first=79  second=98  amount=-4
kerning first=79  second=99  amount=-3
kerning first=79  second=102  amount=-4
kerning first=79  second=104  amount=-4
kerning first=79  second=105  amount=-4
kerning first=79  second=109  amount=-4
kerning first=79  second=111  amount=-4
kerning first=79  second=112  amount=-4
kerning first=79  second=115  amount=-2
kerning first=79  second=117  amount=-4
kerning first=79  second=122  amount=-4
kerning first=78  second=44  amount=-4
kerning first=78  second=63  amount=-3
kerning first=78  second=67  amount=-5
kerning first=78  second=71  amount=-5
kerning first=78  second=79  amount=-5
kerning first=78  second=117  amount=-5
kerning first=77  second=44  amount=-4
kerning first=77  second=46  amount=-6
kerning first=77  second=63  amount=-3
kerning first=77  second=71  amount=-5
kerning first=77  second=79  amount=-5
kerning first=77  second=99  amount=-5
kerning first=77  second=100  amount=-6
kerning first=77  second=101  amount=-6
kerning first=77  second=105  amount=-6
kerning first=77  second=110  amount=-6
kerning first=77  second=111  amount=-5
kerning first=77  second=117  amount=-5
kerning first=77  second=33  amount=-3
kerning first=75  second=67  amount=-2
kerning first=75  second=71  amount=-3
kerning first=75  second=79  amount=-3
kerning first=75  second=111  amount=-3
kerning first=74  second=63  amount=-2
kerning first=74  second=101  amount=-5
kerning first=74  second=105  amount=-5
kerning first=73  second=63  amount=-3
kerning first=73  second=67  amount=-5
kerning first=73  second=71  amount=-6
kerning first=73  second=98  amount=-6
kerning first=73  second=99  amount=-5
kerning first=73  second=100  amount=-6
kerning first=73  second=101  amount=-6
kerning first=73  second=102  amount=-6
kerning first=73  second=103  amount=-6
kerning first=73  second=105  amount=-6
kerning first=73  second=107  amount=-6
kerning first=73  second=108  amount=-3
kerning first=73  second=109  amount=-6
kerning first=73  second=110  amount=-6
kerning first=72  second=44  amount=-4
kerning first=72  second=46  amount=-6
kerning first=72  second=63  amount=-3
kerning first=72  second=79  amount=-5
kerning first=72  second=101  amount=-6
kerning first=72  second=105  amount=-6
kerning first=72  second=111  amount=-5
kerning first=72  second=117  amount=-5
kerning first=71  second=44  amount=-3
kerning first=71  second=46  amount=-5
kerning first=71  second=47  amount=-2
kerning first=71  second=63  amount=-3
kerning first=71  second=79  amount=-4
kerning first=71  second=104  amount=-4
kerning first=71  second=117  amount=-4
kerning first=70  second=44  amount=-57
kerning first=70  second=46  amount=-59
kerning first=70  second=47  amount=-13
kerning first=70  second=65  amount=-16
kerning first=70  second=97  amount=-16
kerning first=69  second=79  amount=-5
kerning first=69  second=109  amount=-4
kerning first=69  second=110  amount=-4
kerning first=69  second=111  amount=-5
kerning first=69  second=112  amount=-4
kerning first=69  second=114  amount=-4
kerning first=69  second=117  amount=-4
kerning first=68  second=63  amount=-5
kerning first=68  second=65  amount=-5
kerning first=68  second=97  amount=-5
kerning first=67  second=44  amount=-2
kerning first=67  second=46  amount=-4
kerning first=67  second=79  amount=-5
kerning first=67  second=114  amount=-4
kerning first=67  second=117  amount=-4
kerning first=67  second=122  amount=-4
kerning first=66  second=44  amount=-3
kerning first=66  second=46  amount=-5
kerning first=66  second=47  amount=-2
kerning first=66  second=63  amount=-3
kerning first=66  second=69  amount=-5
kerning first=66  second=76  amount=-2
kerning first=66  second=80  amount=-5
kerning first=66  second=82  amount=-5
kerning first=66  second=85  amount=-4
kerning first=66  second=114  amount=-5
kerning first=66  second=33  amount=-3
kerning first=65  second=63  amount=-3
kerning first=65  second=67  amount=-2
kerning first=65  second=84  amount=-35
kerning first=65  second=85  amount=-3
kerning first=65  second=86  amount=-39
kerning first=65  second=87  amount=-23
kerning first=65  second=89  amount=-39
kerning first=65  second=99  amount=-2
kerning first=65  second=116  amount=-35
kerning first=65  second=117  amount=-3
kerning first=65  second=118  amount=-39
kerning first=65  second=119  amount=-23
kerning first=65  second=121  amount=-39
