info face="Pirulen" size=120 bold=0 italic=0 charset="" unicode=0 stretchH=100 smooth=1 aa=1 padding=0,0,0,0 spacing=0,0
common lineHeight=134 base=103 scaleW=512 scaleH=512 pages=4 packed=0
page id=0 file="header_font1.png"
page id=1 file="header_font2.png"
page id=2 file="header_font3.png"
page id=3 file="header_font4.png"
chars count=94
char id=32   x=0     y=0     width=0     height=0     xoffset=0     yoffset=103    xadvance=60     page=0  chnl=0 
char id=124   x=0     y=0     width=13     height=106     xoffset=8     yoffset=8    xadvance=27     page=0  chnl=0 
char id=125   x=13     y=0     width=30     height=106     xoffset=5     yoffset=8    xadvance=35     page=0  chnl=0 
char id=123   x=43     y=0     width=31     height=106     xoffset=2     yoffset=8    xadvance=35     page=0  chnl=0 
char id=93   x=74     y=0     width=22     height=106     xoffset=3     yoffset=8    xadvance=31     page=0  chnl=0 
char id=41   x=96     y=0     width=31     height=106     xoffset=3     yoffset=8    xadvance=36     page=0  chnl=0 
char id=40   x=127     y=0     width=30     height=106     xoffset=4     yoffset=8    xadvance=36     page=0  chnl=0 
char id=91   x=157     y=0     width=22     height=105     xoffset=8     yoffset=8    xadvance=31     page=0  chnl=0 
char id=113   x=179     y=0     width=111     height=105     xoffset=4     yoffset=18    xadvance=120     page=0  chnl=0 
char id=81   x=290     y=0     width=111     height=105     xoffset=4     yoffset=18    xadvance=120     page=0  chnl=0 
char id=37   x=401     y=0     width=91     height=103     xoffset=4     yoffset=1    xadvance=101     page=0  chnl=0 
char id=64   x=0     y=106     width=91     height=103     xoffset=7     yoffset=1    xadvance=102     page=0  chnl=0 
char id=38   x=91     y=106     width=81     height=86     xoffset=7     yoffset=18    xadvance=92     page=0  chnl=0 
char id=36   x=172     y=106     width=89     height=86     xoffset=4     yoffset=18    xadvance=95     page=0  chnl=0 
char id=92   x=261     y=106     width=62     height=86     xoffset=0     yoffset=18    xadvance=61     page=0  chnl=0 
char id=47   x=323     y=106     width=62     height=86     xoffset=0     yoffset=18    xadvance=61     page=0  chnl=0 
char id=63   x=385     y=106     width=76     height=86     xoffset=5     yoffset=18    xadvance=81     page=0  chnl=0 
char id=33   x=461     y=106     width=20     height=86     xoffset=6     yoffset=18    xadvance=31     page=0  chnl=0 
char id=48   x=0     y=209     width=96     height=86     xoffset=7     yoffset=18    xadvance=108     page=0  chnl=0 
char id=57   x=96     y=209     width=98     height=86     xoffset=7     yoffset=18    xadvance=110     page=0  chnl=0 
char id=56   x=194     y=209     width=99     height=86     xoffset=7     yoffset=18    xadvance=111     page=0  chnl=0 
char id=55   x=293     y=209     width=97     height=86     xoffset=3     yoffset=18    xadvance=101     page=0  chnl=0 
char id=54   x=390     y=209     width=98     height=86     xoffset=7     yoffset=18    xadvance=110     page=0  chnl=0 
char id=53   x=0     y=295     width=89     height=86     xoffset=7     yoffset=18    xadvance=101     page=0  chnl=0 
char id=52   x=89     y=295     width=103     height=86     xoffset=1     yoffset=18    xadvance=109     page=0  chnl=0 
char id=51   x=192     y=295     width=86     height=86     xoffset=6     yoffset=18    xadvance=97     page=0  chnl=0 
char id=50   x=278     y=295     width=89     height=86     xoffset=7     yoffset=18    xadvance=101     page=0  chnl=0 
char id=49   x=367     y=295     width=41     height=86     xoffset=0     yoffset=18    xadvance=47     page=0  chnl=0 
char id=122   x=0     y=381     width=116     height=86     xoffset=7     yoffset=18    xadvance=125     page=0  chnl=0 
char id=121   x=116     y=381     width=126     height=86     xoffset=-1     yoffset=18    xadvance=124     page=0  chnl=0 
char id=120   x=242     y=381     width=118     height=86     xoffset=1     yoffset=18    xadvance=120     page=0  chnl=0 
char id=45   x=360     y=381     width=54     height=14     xoffset=7     yoffset=56    xadvance=67     page=0  chnl=0 
char id=95   x=414     y=381     width=80     height=14     xoffset=0     yoffset=107    xadvance=78     page=0  chnl=0 
char id=46   x=0     y=467     width=21     height=18     xoffset=8     yoffset=86    xadvance=35     page=0  chnl=0 
char id=126   x=21     y=467     width=82     height=19     xoffset=5     yoffset=49    xadvance=91     page=0  chnl=0 
char id=96   x=103     y=467     width=45     height=26     xoffset=2     yoffset=3    xadvance=48     page=0  chnl=0 
char id=44   x=148     y=467     width=21     height=27     xoffset=6     yoffset=86    xadvance=31     page=0  chnl=0 
char id=34   x=169     y=467     width=37     height=28     xoffset=7     yoffset=18    xadvance=49     page=0  chnl=0 
char id=39   x=206     y=467     width=17     height=28     xoffset=6     yoffset=18    xadvance=27     page=0  chnl=0 
char id=61   x=223     y=467     width=54     height=40     xoffset=7     yoffset=43    xadvance=64     page=0  chnl=0 
char id=42   x=277     y=467     width=40     height=40     xoffset=3     yoffset=17    xadvance=45     page=0  chnl=0 
char id=58   x=317     y=467     width=18     height=42     xoffset=8     yoffset=62    xadvance=29     page=0  chnl=0 
char id=94   x=335     y=467     width=76     height=43     xoffset=3     yoffset=32    xadvance=81     page=0  chnl=0 
char id=43   x=411     y=467     width=45     height=43     xoffset=2     yoffset=51    xadvance=48     page=0  chnl=0 
char id=119   x=0     y=0     width=162     height=86     xoffset=0     yoffset=18    xadvance=161     page=1  chnl=0 
char id=118   x=162     y=0     width=125     height=86     xoffset=0     yoffset=18    xadvance=124     page=1  chnl=0 
char id=117   x=287     y=0     width=106     height=86     xoffset=8     yoffset=18    xadvance=120     page=1  chnl=0 
char id=116   x=393     y=0     width=106     height=86     xoffset=2     yoffset=18    xadvance=109     page=1  chnl=0 
char id=115   x=0     y=86     width=106     height=86     xoffset=7     yoffset=18    xadvance=118     page=1  chnl=0 
char id=114   x=106     y=86     width=99     height=86     xoffset=8     yoffset=18    xadvance=112     page=1  chnl=0 
char id=112   x=205     y=86     width=97     height=86     xoffset=8     yoffset=18    xadvance=105     page=1  chnl=0 
char id=111   x=302     y=86     width=111     height=86     xoffset=7     yoffset=18    xadvance=123     page=1  chnl=0 
char id=110   x=0     y=172     width=114     height=86     xoffset=8     yoffset=18    xadvance=128     page=1  chnl=0 
char id=109   x=114     y=172     width=130     height=86     xoffset=8     yoffset=18    xadvance=144     page=1  chnl=0 
char id=108   x=244     y=172     width=86     height=86     xoffset=6     yoffset=18    xadvance=95     page=1  chnl=0 
char id=107   x=330     y=172     width=95     height=86     xoffset=8     yoffset=18    xadvance=103     page=1  chnl=0 
char id=106   x=425     y=172     width=52     height=86     xoffset=1     yoffset=18    xadvance=59     page=1  chnl=0 
char id=105   x=477     y=172     width=18     height=86     xoffset=8     yoffset=18    xadvance=32     page=1  chnl=0 
char id=104   x=0     y=258     width=103     height=86     xoffset=8     yoffset=18    xadvance=117     page=1  chnl=0 
char id=103   x=103     y=258     width=100     height=86     xoffset=7     yoffset=18    xadvance=112     page=1  chnl=0 
char id=102   x=203     y=258     width=88     height=86     xoffset=8     yoffset=18    xadvance=96     page=1  chnl=0 
char id=101   x=291     y=258     width=88     height=86     xoffset=8     yoffset=18    xadvance=101     page=1  chnl=0 
char id=100   x=379     y=258     width=111     height=86     xoffset=8     yoffset=18    xadvance=124     page=1  chnl=0 
char id=99   x=0     y=344     width=96     height=86     xoffset=7     yoffset=18    xadvance=108     page=1  chnl=0 
char id=98   x=96     y=344     width=98     height=86     xoffset=8     yoffset=18    xadvance=111     page=1  chnl=0 
char id=97   x=194     y=344     width=125     height=86     xoffset=0     yoffset=18    xadvance=124     page=1  chnl=0 
char id=90   x=319     y=344     width=116     height=86     xoffset=7     yoffset=18    xadvance=125     page=1  chnl=0 
char id=59   x=435     y=344     width=18     height=51     xoffset=6     yoffset=62    xadvance=29     page=1  chnl=0 
char id=60   x=453     y=344     width=54     height=54     xoffset=0     yoffset=36    xadvance=58     page=1  chnl=0 
char id=62   x=0     y=430     width=54     height=54     xoffset=7     yoffset=36    xadvance=60     page=1  chnl=0 
char id=35   x=54     y=430     width=61     height=73     xoffset=6     yoffset=1    xadvance=71     page=1  chnl=0 
char id=89   x=0     y=0     width=126     height=86     xoffset=-1     yoffset=18    xadvance=124     page=2  chnl=0 
char id=88   x=126     y=0     width=118     height=86     xoffset=1     yoffset=18    xadvance=120     page=2  chnl=0 
char id=87   x=244     y=0     width=162     height=86     xoffset=0     yoffset=18    xadvance=161     page=2  chnl=0 
char id=86   x=0     y=86     width=125     height=86     xoffset=0     yoffset=18    xadvance=124     page=2  chnl=0 
char id=85   x=125     y=86     width=106     height=86     xoffset=8     yoffset=18    xadvance=120     page=2  chnl=0 
char id=84   x=231     y=86     width=106     height=86     xoffset=2     yoffset=18    xadvance=109     page=2  chnl=0 
char id=83   x=337     y=86     width=106     height=86     xoffset=7     yoffset=18    xadvance=118     page=2  chnl=0 
char id=82   x=0     y=172     width=99     height=86     xoffset=8     yoffset=18    xadvance=112     page=2  chnl=0 
char id=80   x=99     y=172     width=97     height=86     xoffset=8     yoffset=18    xadvance=105     page=2  chnl=0 
char id=79   x=196     y=172     width=111     height=86     xoffset=7     yoffset=18    xadvance=123     page=2  chnl=0 
char id=78   x=307     y=172     width=114     height=86     xoffset=8     yoffset=18    xadvance=128     page=2  chnl=0 
char id=77   x=0     y=258     width=130     height=86     xoffset=8     yoffset=18    xadvance=144     page=2  chnl=0 
char id=76   x=130     y=258     width=86     height=86     xoffset=6     yoffset=18    xadvance=95     page=2  chnl=0 
char id=75   x=216     y=258     width=95     height=86     xoffset=8     yoffset=18    xadvance=103     page=2  chnl=0 
char id=74   x=311     y=258     width=52     height=86     xoffset=1     yoffset=18    xadvance=59     page=2  chnl=0 
char id=73   x=363     y=258     width=18     height=86     xoffset=8     yoffset=18    xadvance=32     page=2  chnl=0 
char id=72   x=381     y=258     width=103     height=86     xoffset=8     yoffset=18    xadvance=117     page=2  chnl=0 
char id=71   x=0     y=344     width=100     height=86     xoffset=7     yoffset=18    xadvance=112     page=2  chnl=0 
char id=70   x=100     y=344     width=88     height=86     xoffset=8     yoffset=18    xadvance=96     page=2  chnl=0 
char id=69   x=188     y=344     width=88     height=86     xoffset=8     yoffset=18    xadvance=101     page=2  chnl=0 
char id=68   x=276     y=344     width=111     height=86     xoffset=8     yoffset=18    xadvance=124     page=2  chnl=0 
char id=67   x=387     y=344     width=96     height=86     xoffset=7     yoffset=18    xadvance=108     page=2  chnl=0 
char id=66   x=0     y=0     width=98     height=86     xoffset=8     yoffset=18    xadvance=111     page=3  chnl=0 
char id=65   x=98     y=0     width=125     height=86     xoffset=0     yoffset=18    xadvance=124     page=3  chnl=0 
kernings count=464
kerning first=113  second=44  amount=-2
kerning first=113  second=46  amount=-3
kerning first=113  second=47  amount=-2
kerning first=113  second=58  amount=-3
kerning first=113  second=59  amount=-2
kerning first=113  second=63  amount=-2
kerning first=113  second=33  amount=-2
kerning first=81  second=41  amount=-3
kerning first=81  second=44  amount=-2
kerning first=81  second=46  amount=-3
kerning first=81  second=47  amount=-2
kerning first=81  second=63  amount=-2
kerning first=81  second=65  amount=-2
kerning first=81  second=85  amount=-3
kerning first=81  second=93  amount=-3
kerning first=81  second=124  amount=-3
kerning first=81  second=125  amount=-4
kerning first=81  second=97  amount=-2
kerning first=81  second=117  amount=-3
kerning first=81  second=33  amount=-2
kerning first=47  second=48  amount=-2
kerning first=47  second=52  amount=-17
kerning first=47  second=54  amount=-2
kerning first=47  second=56  amount=-2
kerning first=47  second=65  amount=-24
kerning first=47  second=71  amount=-2
kerning first=47  second=79  amount=-2
kerning first=47  second=97  amount=-24
kerning first=47  second=99  amount=-2
kerning first=47  second=103  amount=-2
kerning first=47  second=106  amount=-17
kerning first=47  second=111  amount=-2
kerning first=48  second=50  amount=-3
kerning first=48  second=53  amount=-3
kerning first=57  second=46  amount=-4
kerning first=57  second=48  amount=-3
kerning first=57  second=50  amount=-3
kerning first=57  second=51  amount=-3
kerning first=57  second=53  amount=-3
kerning first=57  second=54  amount=-3
kerning first=57  second=56  amount=-3
kerning first=56  second=44  amount=-3
kerning first=56  second=46  amount=-4
kerning first=56  second=47  amount=-2
kerning first=56  second=48  amount=-3
kerning first=56  second=51  amount=-3
kerning first=56  second=53  amount=-3
kerning first=56  second=57  amount=-3
kerning first=55  second=44  amount=-31
kerning first=55  second=47  amount=-21
kerning first=55  second=52  amount=-22
kerning first=54  second=44  amount=-2
kerning first=54  second=46  amount=-3
kerning first=54  second=50  amount=-2
kerning first=54  second=55  amount=-3
kerning first=53  second=44  amount=-2
kerning first=53  second=46  amount=-3
kerning first=53  second=48  amount=-3
kerning first=53  second=50  amount=-2
kerning first=53  second=51  amount=-3
kerning first=53  second=53  amount=-3
kerning first=53  second=54  amount=-3
kerning first=53  second=56  amount=-3
kerning first=53  second=57  amount=-4
kerning first=52  second=48  amount=-2
kerning first=52  second=51  amount=-5
kerning first=52  second=53  amount=-5
kerning first=52  second=55  amount=-5
kerning first=52  second=57  amount=-8
kerning first=51  second=44  amount=-2
kerning first=51  second=46  amount=-4
kerning first=51  second=48  amount=-3
kerning first=51  second=50  amount=-3
kerning first=51  second=51  amount=-3
kerning first=51  second=53  amount=-3
kerning first=51  second=54  amount=-3
kerning first=51  second=56  amount=-3
kerning first=51  second=57  amount=-2
kerning first=50  second=46  amount=-3
kerning first=50  second=48  amount=-3
kerning first=50  second=51  amount=-2
kerning first=50  second=54  amount=-3
kerning first=50  second=57  amount=-2
kerning first=49  second=44  amount=-3
kerning first=121  second=44  amount=-31
kerning first=121  second=46  amount=-33
kerning first=121  second=47  amount=-23
kerning first=121  second=59  amount=-21
kerning first=121  second=97  amount=-29
kerning first=121  second=99  amount=-1
kerning first=120  second=99  amount=-3
kerning first=120  second=111  amount=-3
kerning first=46  second=54  amount=-4
kerning first=46  second=55  amount=-17
kerning first=46  second=56  amount=-4
kerning first=119  second=46  amount=-20
kerning first=119  second=47  amount=-18
kerning first=119  second=59  amount=-11
kerning first=119  second=97  amount=-17
kerning first=118  second=44  amount=-29
kerning first=118  second=46  amount=-31
kerning first=118  second=47  amount=-23
kerning first=118  second=59  amount=-19
kerning first=118  second=97  amount=-29
kerning first=117  second=58  amount=-4
kerning first=117  second=59  amount=-3
kerning first=117  second=63  amount=-2
kerning first=116  second=47  amount=-21
kerning first=116  second=59  amount=-18
kerning first=115  second=44  amount=-2
kerning first=115  second=58  amount=-3
kerning first=115  second=59  amount=-2
kerning first=115  second=63  amount=-5
kerning first=115  second=33  amount=-3
kerning first=114  second=44  amount=-3
kerning first=114  second=45  amount=-6
kerning first=114  second=46  amount=-4
kerning first=114  second=59  amount=-3
kerning first=114  second=63  amount=-2
kerning first=114  second=99  amount=-3
kerning first=114  second=100  amount=-3
kerning first=114  second=101  amount=-3
kerning first=114  second=103  amount=-3
kerning first=114  second=105  amount=-3
kerning first=114  second=107  amount=-3
kerning first=114  second=109  amount=-3
kerning first=114  second=110  amount=-3
kerning first=114  second=111  amount=-3
kerning first=114  second=112  amount=-3
kerning first=114  second=114  amount=-3
kerning first=114  second=115  amount=-2
kerning first=114  second=33  amount=-2
kerning first=112  second=44  amount=-50
kerning first=112  second=46  amount=-51
kerning first=112  second=47  amount=-11
kerning first=111  second=46  amount=-3
kerning first=111  second=58  amount=-3
kerning first=111  second=63  amount=-2
kerning first=111  second=103  amount=-3
kerning first=111  second=120  amount=-2
kerning first=111  second=33  amount=-2
kerning first=110  second=46  amount=-4
kerning first=110  second=58  amount=-4
kerning first=110  second=100  amount=-4
kerning first=110  second=111  amount=-4
kerning first=109  second=44  amount=-3
kerning first=109  second=46  amount=-4
kerning first=109  second=58  amount=-4
kerning first=109  second=59  amount=-3
kerning first=109  second=63  amount=-2
kerning first=109  second=117  amount=-4
kerning first=109  second=33  amount=-3
kerning first=107  second=111  amount=-2
kerning first=106  second=58  amount=-4
kerning first=106  second=59  amount=-2
kerning first=106  second=63  amount=-2
kerning first=106  second=111  amount=-3
kerning first=105  second=46  amount=-4
kerning first=105  second=58  amount=-4
kerning first=105  second=59  amount=-3
kerning first=105  second=63  amount=-2
kerning first=105  second=33  amount=-3
kerning first=104  second=58  amount=-4
kerning first=104  second=59  amount=-3
kerning first=104  second=63  amount=-2
kerning first=104  second=111  amount=-4
kerning first=104  second=33  amount=-3
kerning first=103  second=59  amount=-2
kerning first=103  second=63  amount=-2
kerning first=103  second=101  amount=-3
kerning first=103  second=102  amount=-3
kerning first=103  second=105  amount=-3
kerning first=103  second=111  amount=-3
kerning first=103  second=114  amount=-3
kerning first=103  second=33  amount=-3
kerning first=102  second=44  amount=-43
kerning first=102  second=46  amount=-45
kerning first=102  second=47  amount=-9
kerning first=102  second=97  amount=-12
kerning first=102  second=106  amount=-6
kerning first=101  second=100  amount=-3
kerning first=101  second=110  amount=-3
kerning first=101  second=112  amount=-3
kerning first=100  second=58  amount=-4
kerning first=100  second=59  amount=-2
kerning first=100  second=63  amount=-3
kerning first=100  second=101  amount=-4
kerning first=100  second=33  amount=-3
kerning first=99  second=44  amount=-2
kerning first=99  second=46  amount=-3
kerning first=99  second=58  amount=-3
kerning first=99  second=107  amount=-3
kerning first=99  second=33  amount=-1
kerning first=98  second=44  amount=-2
kerning first=98  second=46  amount=-4
kerning first=98  second=47  amount=-2
kerning first=98  second=58  amount=-3
kerning first=98  second=59  amount=-2
kerning first=98  second=63  amount=-2
kerning first=98  second=98  amount=-3
kerning first=98  second=108  amount=-1
kerning first=98  second=117  amount=-3
kerning first=98  second=33  amount=-3
kerning first=97  second=63  amount=-2
kerning first=97  second=116  amount=-26
kerning first=97  second=118  amount=-29
kerning first=97  second=119  amount=-17
kerning first=97  second=121  amount=-29
kerning first=89  second=44  amount=-31
kerning first=89  second=46  amount=-33
kerning first=89  second=47  amount=-23
kerning first=89  second=58  amount=-22
kerning first=89  second=59  amount=-21
kerning first=89  second=65  amount=-29
kerning first=89  second=67  amount=-1
kerning first=89  second=97  amount=-29
kerning first=89  second=99  amount=-1
kerning first=88  second=67  amount=-3
kerning first=88  second=71  amount=-3
kerning first=88  second=79  amount=-3
kerning first=87  second=44  amount=-19
kerning first=87  second=58  amount=-13
kerning first=87  second=59  amount=-11
kerning first=87  second=65  amount=-17
kerning first=87  second=97  amount=-17
kerning first=86  second=44  amount=-29
kerning first=86  second=45  amount=-17
kerning first=86  second=46  amount=-31
kerning first=86  second=47  amount=-23
kerning first=86  second=58  amount=-20
kerning first=86  second=59  amount=-19
kerning first=86  second=65  amount=-29
kerning first=86  second=67  amount=-1
kerning first=86  second=97  amount=-29
kerning first=85  second=65  amount=-3
kerning first=85  second=79  amount=-4
kerning first=85  second=83  amount=-3
kerning first=85  second=97  amount=-3
kerning first=85  second=99  amount=-3
kerning first=85  second=100  amount=-4
kerning first=85  second=103  amount=-4
kerning first=85  second=105  amount=-4
kerning first=85  second=112  amount=-4
kerning first=85  second=114  amount=-4
kerning first=85  second=115  amount=-3
kerning first=85  second=122  amount=-4
kerning first=84  second=44  amount=-27
kerning first=84  second=45  amount=-16
kerning first=84  second=46  amount=-28
kerning first=84  second=47  amount=-21
kerning first=84  second=59  amount=-18
kerning first=84  second=65  amount=-26
kerning first=84  second=97  amount=-26
kerning first=83  second=46  amount=-3
kerning first=83  second=63  amount=-5
kerning first=83  second=73  amount=-3
kerning first=83  second=77  amount=-3
kerning first=83  second=84  amount=-2
kerning first=83  second=104  amount=-3
kerning first=83  second=105  amount=-3
kerning first=83  second=107  amount=-3
kerning first=83  second=109  amount=-3
kerning first=83  second=110  amount=-3
kerning first=83  second=112  amount=-3
kerning first=83  second=114  amount=-3
kerning first=83  second=117  amount=-3
kerning first=82  second=63  amount=-2
kerning first=82  second=67  amount=-3
kerning first=82  second=71  amount=-3
kerning first=82  second=79  amount=-3
kerning first=82  second=85  amount=-3
kerning first=82  second=101  amount=-3
kerning first=82  second=111  amount=-3
kerning first=80  second=44  amount=-50
kerning first=80  second=46  amount=-51
kerning first=80  second=47  amount=-11
kerning first=80  second=97  amount=-14
kerning first=79  second=44  amount=-2
kerning first=79  second=46  amount=-3
kerning first=79  second=68  amount=-3
kerning first=79  second=69  amount=-3
kerning first=79  second=75  amount=-3
kerning first=79  second=82  amount=-3
kerning first=79  second=85  amount=-3
kerning first=79  second=88  amount=-2
kerning first=79  second=98  amount=-3
kerning first=79  second=99  amount=-3
kerning first=79  second=102  amount=-3
kerning first=79  second=104  amount=-3
kerning first=79  second=105  amount=-3
kerning first=79  second=109  amount=-3
kerning first=79  second=111  amount=-3
kerning first=79  second=112  amount=-3
kerning first=79  second=115  amount=-2
kerning first=79  second=117  amount=-3
kerning first=79  second=122  amount=-3
kerning first=78  second=44  amount=-3
kerning first=78  second=63  amount=-2
kerning first=78  second=67  amount=-4
kerning first=78  second=71  amount=-4
kerning first=78  second=79  amount=-4
kerning first=78  second=117  amount=-4
kerning first=77  second=44  amount=-3
kerning first=77  second=46  amount=-4
kerning first=77  second=63  amount=-2
kerning first=77  second=71  amount=-4
kerning first=77  second=79  amount=-4
kerning first=77  second=99  amount=-4
kerning first=77  second=100  amount=-4
kerning first=77  second=101  amount=-4
kerning first=77  second=105  amount=-4
kerning first=77  second=110  amount=-4
kerning first=77  second=111  amount=-4
kerning first=77  second=117  amount=-4
kerning first=77  second=33  amount=-3
kerning first=75  second=67  amount=-2
kerning first=75  second=71  amount=-2
kerning first=75  second=79  amount=-2
kerning first=75  second=111  amount=-2
kerning first=74  second=63  amount=-2
kerning first=74  second=101  amount=-4
kerning first=74  second=105  amount=-4
kerning first=73  second=63  amount=-2
kerning first=73  second=67  amount=-4
kerning first=73  second=71  amount=-4
kerning first=73  second=98  amount=-4
kerning first=73  second=99  amount=-4
kerning first=73  second=100  amount=-4
kerning first=73  second=101  amount=-4
kerning first=73  second=102  amount=-4
kerning first=73  second=103  amount=-4
kerning first=73  second=105  amount=-4
kerning first=73  second=107  amount=-4
kerning first=73  second=108  amount=-2
kerning first=73  second=109  amount=-4
kerning first=73  second=110  amount=-4
kerning first=72  second=44  amount=-3
kerning first=72  second=46  amount=-4
kerning first=72  second=63  amount=-2
kerning first=72  second=79  amount=-4
kerning first=72  second=101  amount=-4
kerning first=72  second=105  amount=-4
kerning first=72  second=111  amount=-4
kerning first=72  second=117  amount=-4
kerning first=71  second=44  amount=-2
kerning first=71  second=46  amount=-3
kerning first=71  second=47  amount=-1
kerning first=71  second=63  amount=-2
kerning first=71  second=79  amount=-3
kerning first=71  second=104  amount=-3
kerning first=71  second=117  amount=-3
kerning first=70  second=44  amount=-43
kerning first=70  second=46  amount=-45
kerning first=70  second=47  amount=-9
kerning first=70  second=65  amount=-12
kerning first=70  second=97  amount=-12
kerning first=69  second=79  amount=-3
kerning first=69  second=109  amount=-3
kerning first=69  second=110  amount=-3
kerning first=69  second=111  amount=-3
kerning first=69  second=112  amount=-3
kerning first=69  second=114  amount=-3
kerning first=69  second=117  amount=-3
kerning first=68  second=63  amount=-3
kerning first=68  second=65  amount=-3
kerning first=68  second=97  amount=-3
kerning first=67  second=44  amount=-2
kerning first=67  second=46  amount=-3
kerning first=67  second=79  amount=-3
kerning first=67  second=114  amount=-3
kerning first=67  second=117  amount=-3
kerning first=67  second=122  amount=-3
kerning first=66  second=44  amount=-2
kerning first=66  second=46  amount=-4
kerning first=66  second=47  amount=-2
kerning first=66  second=63  amount=-2
kerning first=66  second=69  amount=-3
kerning first=66  second=76  amount=-1
kerning first=66  second=80  amount=-3
kerning first=66  second=82  amount=-3
kerning first=66  second=85  amount=-3
kerning first=66  second=114  amount=-3
kerning first=66  second=33  amount=-3
kerning first=65  second=63  amount=-2
kerning first=65  second=67  amount=-1
kerning first=65  second=84  amount=-26
kerning first=65  second=85  amount=-2
kerning first=65  second=86  amount=-29
kerning first=65  second=87  amount=-17
kerning first=65  second=89  amount=-29
kerning first=65  second=99  amount=-1
kerning first=65  second=116  amount=-26
kerning first=65  second=117  amount=-2
kerning first=65  second=118  amount=-29
kerning first=65  second=119  amount=-17
kerning first=65  second=121  amount=-29
